ACA-CRC/checker/simulation/qsim/checker.msim.vcd
$comment
	File created using the following command:
		vcd file checker.msim.vcd -direction
$end
$date
	Tue Dec 08 14:51:45 2020
$end
$version
	ModelSim Version 2020.1
$end
$timescale
	1ps
$end

$scope module checker_vhd_vec_tst $end
$var wire 1 ! clk $end
$var wire 1 " data_in $end
$var wire 1 # error $end

$scope module i1 $end
$var wire 1 $ gnd $end
$var wire 1 % vcc $end
$var wire 1 & unknown $end
$var wire 1 ' devoe $end
$var wire 1 ( devclrn $end
$var wire 1 ) devpor $end
$var wire 1 * ww_devoe $end
$var wire 1 + ww_devclrn $end
$var wire 1 , ww_devpor $end
$var wire 1 - ww_clk $end
$var wire 1 . ww_data_in $end
$var wire 1 / ww_error $end
$var wire 1 0 \clk~inputclkctrl_INCLK_bus\ [3] $end
$var wire 1 1 \clk~inputclkctrl_INCLK_bus\ [2] $end
$var wire 1 2 \clk~inputclkctrl_INCLK_bus\ [1] $end
$var wire 1 3 \clk~inputclkctrl_INCLK_bus\ [0] $end
$var wire 1 4 \error~output_o\ $end
$var wire 1 5 \clk~input_o\ $end
$var wire 1 6 \clk~inputclkctrl_outclk\ $end
$var wire 1 7 \cR1|s_clkCounter[0]~12_combout\ $end
$var wire 1 8 \cR1|s_clkCounter[1]~4_combout\ $end
$var wire 1 9 \cR1|s_clkCounter[1]~5\ $end
$var wire 1 : \cR1|s_clkCounter[2]~6_combout\ $end
$var wire 1 ; \cR1|s_clkCounter[2]~7\ $end
$var wire 1 < \cR1|s_clkCounter[3]~8_combout\ $end
$var wire 1 = \cR1|Equal0~0_combout\ $end
$var wire 1 > \cR1|s_clkCounter[3]~9\ $end
$var wire 1 ? \cR1|s_clkCounter[4]~10_combout\ $end
$var wire 1 @ \data_in~input_o\ $end
$var wire 1 A \xor3|out0~0_combout\ $end
$var wire 1 B \flipFlop3|Q~q\ $end
$var wire 1 C \xor4|out0~0_combout\ $end
$var wire 1 D \flipFlop4|Q~q\ $end
$var wire 1 E \flipFlop5|Q~q\ $end
$var wire 1 F \xor5|out0~0_combout\ $end
$var wire 1 G \flipFlop6|Q~q\ $end
$var wire 1 H \flipFlop7|Q~feeder_combout\ $end
$var wire 1 I \flipFlop7|Q~q\ $end
$var wire 1 J \flipFlop8|Q~feeder_combout\ $end
$var wire 1 K \flipFlop8|Q~q\ $end
$var wire 1 L \xor1|out0~0_combout\ $end
$var wire 1 M \flipFlop1|Q~q\ $end
$var wire 1 N \xor2|out0~0_combout\ $end
$var wire 1 O \flipFlop2|Q~q\ $end
$var wire 1 P \cR1|flag~0_combout\ $end
$var wire 1 Q \cR1|flag~1_combout\ $end
$var wire 1 R \cR1|flag~2_combout\ $end
$var wire 1 S \cR1|flag~3_combout\ $end
$var wire 1 T \cR1|flag~q\ $end
$var wire 1 U \cR1|s_clkCounter\ [4] $end
$var wire 1 V \cR1|s_clkCounter\ [3] $end
$var wire 1 W \cR1|s_clkCounter\ [2] $end
$var wire 1 X \cR1|s_clkCounter\ [1] $end
$var wire 1 Y \cR1|s_clkCounter\ [0] $end
$upscope $end
$upscope $end
$enddefinitions $end
#0
$dumpvars
0!
1"
0#
0$
1%
x&
1'
1(
1)
1*
1+
1,
0-
1.
0/
04
05
06
17
08
09
0:
1;
0<
0=
0>
0?
1@
0A
0B
0C
0D
0E
0F
0G
0H
0I
0J
0K
1L
0M
0N
0O
0P
0Q
0R
0S
0T
0U
0V
0W
0X
0Y
10
11
12
03
$end
#5000
1!
1-
15
13
16
1Y
1M
1N
1P
07
18
#10000
0!
0-
05
03
06
#15000
1!
1-
15
13
16
0Y
1X
1O
1A
17
#20000
0!
0-
05
03
06
#25000
1!
1-
15
13
16
1Y
1B
1C
07
08
19
1:
#30000
0!
0"
0-
0.
0@
05
03
0L
06
#35000
1!
1-
15
13
16
0Y
0X
1W
1D
0M
0N
0:
0;
17
09
1:
1;
1<
0<
#40000
0!
0-
05
03
06
#45000
1!
1-
15
13
16
1Y
1E
0O
0A
1F
1Q
07
18
#50000
0!
0-
05
03
06
#55000
1!
1-
15
13
16
0Y
1X
0B
1G
1H
0C
17
#60000
0!
0-
05
03
06
#65000
1!
1-
15
13
16
1Y
0D
1I
1J
0P
07
08
19
0:
0;
1<
#70000
0!
0-
05
03
06
#75000
1!
1-
15
13
16
0Y
0X
0W
1V
0E
1K
1A
1C
1L
1N
0<
1>
1:
1;
17
09
1=
0:
1<
0>
1?
0?
#80000
0!
1"
0-
1.
1@
05
03
0L
06
#85000
1!
1-
15
13
16
1Y
1B
1D
1O
0A
0C
1P
07
18
0=
#90000
0!
0"
0-
0.
0@
05
03
1L
06
#95000
1!
1-
15
13
16
0Y
1X
0B
0D
1E
1M
0N
0F
1C
17
#100000
0!
1"
0-
1.
1@
05
03
0L
06
#105000
1!
1-
15
13
16
1Y
1D
0E
0G
0M
0O
1A
1N
0H
1F
07
08
19
1:
#110000
0!
0"
0-
0.
0@
05
03
1L
06
#115000
1!
1-
15
13
16
0Y
0X
1W
1B
1E
1G
0I
1M
1O
0A
0N
0J
1H
0F
0C
0:
0;
17
09
1:
1;
0<
1>
1?
1<
0>
0?
#120000
0!
0-
05
03
06
#125000
1!
1-
15
13
16
1Y
0B
0D
0G
1I
0K
0O
1F
0L
1N
1J
0H
07
18
#130000
0!
0-
05
03
06
#135000
1!
1-
15
13
16
0Y
1X
0E
1G
0I
1K
0M
1O
1C
1L
0J
1H
17
#140000
0!
1"
0-
1.
1@
05
03
0L
06
#145000
1!
1-
15
13
16
1Y
1D
1I
0K
1A
0C
0F
1L
0N
1J
07
08
19
0:
0;
0<
1>
1?
#150000
0!
0-
05
03
06
#155000
1!
1-
15
13
16
0Y
0X
0W
0V
1U
1B
0D
1E
0G
1K
1M
0O
0L
0H
0?
1<
0>
1:
1;
17
09
0:
0<
1?
#160000
0!
0"
0-
0.
0@
05
03
1L
06
#165000
1!
1-
15
13
16
1Y
0E
0I
0J
1F
07
18
#170000
0!
0-
05
03
06
#175000
1!
1-
15
13
16
0Y
1X
1G
0K
0A
1C
0F
0L
1N
1H
17
#180000
0!
0-
05
03
06
#185000
1!
1-
15
13
16
1Y
0B
1D
0G
1I
0M
1O
1A
0N
1J
0H
0C
07
08
19
1:
#190000
0!
1"
0-
1.
1@
05
03
1L
06
#195000
1!
1-
15
13
16
0Y
0X
1W
1B
0D
1E
0I
1K
1M
0O
0L
0J
0:
0;
17
09
1:
1;
1<
0<
#200000
0!
0-
05
03
06
#205000
1!
1-
15
13
16
1Y
0E
0K
0M
0A
1C
1L
0Q
07
18
#210000
0!
0-
05
03
06
#215000
1!
1-
15
13
16
0Y
1X
0B
1D
1M
1N
0C
17
#220000
0!
0"
0-
0.
0@
05
03
0L
06
#225000
1!
1-
15
13
16
1Y
0D
1E
0M
1O
1A
0N
1F
1Q
07
08
19
0:
0;
1<
#230000
0!
1"
0-
1.
1@
05
03
1L
06
#235000
1!
1-
15
13
16
0Y
0X
0W
1V
1B
0E
1G
1M
0O
0A
1N
1H
0F
1C
0<
1>
1:
1;
17
09
1=
1R
0:
1<
0>
0?
1?
1S
#240000
0!
0"
0-
0.
0@
05
03
0L
06
#245000
1!
1-
15
13
16
1Y
0B
1D
0G
1I
0M
1O
1T
1A
0N
1J
0H
0C
07
18
0=
0R
14
1/
1#
#250000
0!
0-
05
03
06
#255000
1!
1-
15
13
16
0Y
1X
1B
0D
1E
0I
1K
0O
1L
1N
0J
17
#260000
0!
0-
05
03
06
#265000
1!
1-
15
13
16
1Y
0E
0K
1M
1O
1C
0L
0Q
07
08
19
1:
#270000
0!
0-
05
03
06
#275000
1!
1-
15
13
16
0Y
0X
1W
1D
0M
0N
0:
0;
17
09
1:
1;
0<
1>
0?
1<
0>
1?
